<svg width="69" height="58" viewBox="0 0 69 58" fill="none" xmlns="http://www.w3.org/2000/svg">
<path d="M1.03223 47.1982V52.9671H12.3655L14.9259 58L35.9355 54.6428L30.9034 48.9419L21.8478 48.8966L21.798 47.1982H1.36475H1.03223Z" fill="#0E2D2E"/>
<path d="M51.3866 0V3.63455H42.852L37.3543 8.67311H31.2859L23.3221 2.2815H1.03784V12.1605H38.3076L43.9049 6.98038H51.0651L51.115 10.6149H61.3067V0H51.3977H51.3866ZM58.5468 7.46159H54.4236V3.53831H58.5468V7.46159Z" fill="#2E4985"/>
<path d="M46.4099 15.9818V19.2767H37.5926V16.0328L24.9348 16.2762V13.3719L1.03784 13.6154V22.7697L46.1272 22.7188L46.3157 26.693H56.5572V15.9422L46.4099 15.9931V15.9818ZM53.6865 23.4434H49.5633V19.5201H53.6865V23.4434Z" fill="#7DB5BF"/>
<path d="M58.4969 31.4825V35.117H52.24L48.3496 29.835H38.2022V26.5401L18.4784 26.7836V24.4568H0.888184V36.5154L27.5838 36.0794L27.534 33.3167L46.166 33.3677L49.7683 38.695L58.447 38.1628V41.5539H68.5001V31.4768H58.4969V31.4825ZM65.7292 38.2647H61.6059V34.3414H65.7292V38.2647Z" fill="#138080"/>
<path d="M47.0471 46.2811V49.1854H43.7774L37.3764 41.8257H34.3394L35.7637 38.2874L0.865967 38.5761L1.10427 45.8905L35.6695 45.8395L42.2145 52.9105L47.0527 52.718L47.0028 56.1091H56.7234V46.2302L47.0527 46.2811H47.0471ZM53.4703 53.0633H49.3471V49.1401H53.4703V53.0633Z" fill="#0F5958"/>
</svg>
