<svg width="18" height="9" viewBox="0 0 18 9" fill="none" xmlns="http://www.w3.org/2000/svg">
<path d="M9.00002 8.8C8.30002 8.8 7.60002 8.53 7.07002 8L0.55002 1.48C0.26002 1.19 0.26002 0.709999 0.55002 0.419999C0.84002 0.129999 1.32002 0.129999 1.61002 0.419999L8.13002 6.94C8.61002 7.42 9.39002 7.42 9.87002 6.94L16.39 0.419999C16.68 0.129999 17.16 0.129999 17.45 0.419999C17.74 0.709999 17.74 1.19 17.45 1.48L10.93 8C10.4 8.53 9.70002 8.8 9.00002 8.8Z" fill="#666666"/>
</svg>
