{
    "/js/app.js": "/js/app.js",
    "/css/app.css": "/css/app.css",
    "/js/chart3.js": "/js/chart3.js",
    "/js/popper.min.js": "/js/popper.min.js",
    "/js/tableSelectors.js": "/js/tableSelectors.js",
    "/doc/canon.xlsx": "/doc/canon.xlsx",
    "/doc/doc.rar": "/doc/doc.rar",
    "/doc/equ-import.xlsx": "/doc/equ-import.xlsx",
    "/webfonts/fa-solid-900.ttf": "/webfonts/fa-solid-900.ttf",
    "/webfonts/fa-solid-900.woff2": "/webfonts/fa-solid-900.woff2",
    "/bootstrap-5.1.3-dist": "/bootstrap-5.1.3-dist",
    "/css/custom-table.css": "/css/custom-table.css",
    "/css/font-awesome5140.min.css": "/css/font-awesome5140.min.css",
    "/css/fonts.googleapis.css": "/css/fonts.googleapis.css",
    "/img/add_circle_outline_black_24dp.svg": "/img/add_circle_outline_black_24dp.svg",
    "/img/back_admin.png": "/img/back_admin.png",
    "/img/contact_mail_black_24dp.svg": "/img/contact_mail_black_24dp.svg",
    "/img/create-outline.svg": "/img/create-outline.svg",
    "/img/credit-card.svg": "/img/credit-card.svg",
    "/img/delete_black_24dp.svg": "/img/delete_black_24dp.svg",
    "/img/done_green_24dp.svg": "/img/done_green_24dp.svg",
    "/img/grid-four-up.svg": "/img/grid-four-up.svg",
    "/img/help_outline_black_24dp.svg": "/img/help_outline_black_24dp.svg",
    "/img/icons8-export-excel-48.png": "/img/icons8-export-excel-48.png",
    "/img/info_black_24dp.svg": "/img/info_black_24dp.svg",
    "/img/insights_black_24dp.svg": "/img/insights_black_24dp.svg",
    "/img/load-dnk.gif": "/img/load-dnk.gif",
    "/img/open_with_black_24dp.svg": "/img/open_with_black_24dp.svg",
    "/img/plus.svg": "/img/plus.svg",
    "/img/question-mark.svg": "/img/question-mark.svg",
    "/img/radio_button_unchecked_black_24dp.svg": "/img/radio_button_unchecked_black_24dp.svg"
}
