<svg width="18" height="9" viewBox="0 0 18 9" fill="none" xmlns="http://www.w3.org/2000/svg">
<path d="M9.00002 8.79989C8.30002 8.79989 7.60002 8.52989 7.07002 7.99989L0.55002 1.47989C0.26002 1.18989 0.26002 0.709893 0.55002 0.419893C0.84002 0.129893 1.32002 0.129893 1.61002 0.419893L8.13002 6.93989C8.61002 7.41989 9.39002 7.41989 9.87002 6.93989L16.39 0.419893C16.68 0.129893 17.16 0.129893 17.45 0.419893C17.74 0.709893 17.74 1.18989 17.45 1.47989L10.93 7.99989C10.4 8.52989 9.70002 8.79989 9.00002 8.79989Z" fill="#666666"/>
</svg>
